52
 generated by VMD
  PB        42.050003        6.340000        6.280000
  PB        42.340004       12.300000        6.090000
  PB        42.000004       18.230001        5.850000
  PB        42.130005       24.240000        6.080000
  PB        42.430000       30.320000        6.150000
  PB        18.190001        5.910000        6.180000
  PB        24.520000        5.960000        6.370000
  PB        30.389999        6.230000        6.230000
  PB        36.160004        6.270000        6.070001
  PB        17.980001       12.040001        6.030001
  PB        23.910000       11.990000        6.260000
  PB        30.090000       12.210001        6.090000
  PB        36.260002       12.350000        6.200000
  PB        17.930000       18.080002        6.110000
  PB        23.830002       18.040001        6.310000
  PB        29.830000       18.220001        6.230000
  PB        36.110001       18.260000        6.230000
  PB        18.080002       24.130001        6.290000
  PB        24.050003       24.120003        6.210001
  PB        30.040001       24.120003        6.210001
  PB        36.270000       24.330002        6.180000
  PB        18.010002       30.180000        6.210001
  PB        24.380001       30.080002        5.830000
  PB        30.320000       30.110001        6.060000
  PB        36.430000       30.340002        6.120000
  C00       27.050001       16.920000       11.780001
  C01       25.620001       17.370001       11.970000
  O02       25.010002       17.200001       10.690001
  H03       25.410002       18.360001       12.370001
  H04       25.210001       16.600000       12.620001
  P05       23.850002       18.240002       10.220001
  O06       24.240000       19.680000       10.490000
  O07       23.580000       17.930000        8.760000
  O08       22.510002       17.870001       11.040001
  C09       22.410002       18.010002       12.460001
  H0B       23.059999       18.830002       12.790001
  H0C       22.610001       17.050001       12.940001
  N0J       27.870003       17.140001       12.990000
  C0K       28.170002       18.610001       13.040000
  H0M       27.330000       19.170000       13.460001
  H0N       28.660002       19.070000       12.190001
  H0O       28.990002       18.630001       13.760000
  C0P       29.190002       16.460001       12.680000
  H0Q       29.910002       16.470001       13.500000
  H0R       29.840002       16.850000       11.900001
  H0S       29.120003       15.410002       12.390001
  C0T       27.290001       16.620001       14.300001
  H0U       27.970001       16.860001       15.110001
  H0V       27.230000       15.530001       14.240000
  H0W       26.310001       17.030001       14.540001
  H0X       27.490002       17.500002       10.980000
  H0Y       27.100000       15.990001       11.220001
