52
 generated by VMD
  PB        41.889999        6.250000        6.060000
  PB        41.990005       12.210001        5.570001
  PB        41.930004       18.210001        5.730000
  PB        41.770000       24.120003        5.740000
  PB        41.830002       30.090000        6.030001
  PB        17.950001        5.900001        6.290000
  PB        24.020002        5.860000        6.310000
  PB        29.740002        6.090000        6.110000
  PB        35.700001        6.200000        5.770000
  PB        17.889999       11.820001        6.080000
  PB        23.810001       11.980000        6.300001
  PB        29.900002       12.120000        5.960000
  PB        35.910000       12.040001        5.840001
  PB        17.820000       17.800001        6.030001
  PB        23.780001       18.050001        6.160001
  PB        29.820002       18.260000        5.960000
  PB        35.810001       18.120001        5.800000
  PB        17.830002       24.020002        6.240000
  PB        23.940001       23.920002        6.020000
  PB        30.110001       24.139999        5.850000
  PB        35.830002       24.150002        5.910000
  PB        17.830002       30.090000        6.190000
  PB        23.770000       29.900002        5.930000
  PB        29.760000       30.140001        5.990000
  PB        35.900002       30.250000        5.990000
  C00       27.299999       17.610001       11.930000
  C01       26.270000       18.680000       11.600000
  O02       25.620001       18.210001       10.470000
  H03       26.710003       19.660000       11.430000
  H04       25.580002       18.740002       12.440001
  P05       24.220001       18.680000       10.030001
  O06       24.200001       20.090000       10.310000
  O07       24.100000       18.340000        8.600000
  O08       23.080002       18.050001       10.880001
  C09       23.020000       16.620001       11.160001
  H0B       23.930000       16.340000       11.690001
  H0C       22.990000       16.120001       10.190001
  N0J       28.130001       17.790001       13.180000
  C0K       28.630001       19.190002       13.280001
  H0M       29.470001       19.050001       13.960000
  H0N       27.860001       19.860001       13.670001
  H0O       28.960001       19.590000       12.330000
  C0P       29.200001       16.770000       13.100000
  H0Q       29.880001       17.080000       12.310000
  H0R       28.860001       15.780001       12.800001
  H0S       29.620001       16.660002       14.110001
  C0T       27.280003       17.540001       14.350000
  H0U       26.720001       16.610001       14.330001
  H0V       26.500000       18.290001       14.280001
  H0W       27.930002       17.630001       15.230001
  H0X       27.980001       17.750000       11.090001
  H0Y       27.040003       16.550001       11.880001
