52
 generated by VMD
  PB        42.000004        5.980000        5.850000
  PB        42.180004       11.960001        5.920000
  PB        42.070004       18.090002        6.080000
  PB        41.980003       24.209999        6.150000
  PB        42.150002       30.070002        5.990000
  PB        17.970001        5.880000        5.910000
  PB        24.060001        6.120000        6.040000
  PB        30.050001        6.020000        6.120000
  PB        36.030003        5.750000        6.130000
  PB        17.650002       12.090001        5.920000
  PB        23.780001       11.920000        5.930000
  PB        30.070002       12.090001        5.800000
  PB        36.180004       12.000000        6.070001
  PB        18.030001       18.100000        5.920000
  PB        24.020002       17.940001        5.880000
  PB        30.040001       18.250000        6.120000
  PB        36.280003       17.900002        6.050000
  PB        18.070000       24.050003        6.160001
  PB        24.230001       23.960001        5.930000
  PB        30.230003       24.220001        6.020000
  PB        36.170002       23.910000        6.020000
  PB        17.950001       30.030003        6.240000
  PB        24.050003       29.900002        6.180000
  PB        30.200003       30.170002        6.060000
  PB        36.120003       29.860001        6.090000
  C00       27.200001       16.680000       11.610001
  C01       26.140001       17.780001       11.370001
  O02       25.400002       17.260000       10.300001
  H03       26.610001       18.710001       11.050000
  H04       25.500002       17.950001       12.240001
  P05       24.040001       17.960001        9.760000
  O06       24.170000       19.460001        9.970000
  O07       23.790001       17.510000        8.380001
  O08       22.889999       17.440001       10.740000
  C09       22.889999       16.070002       11.070000
  H0B       23.840000       15.770000       11.520000
  H0C       22.850000       15.470000       10.160000
  N0J       28.000002       16.830002       12.840000
  C0K       29.030001       15.700001       12.830001
  H0M       29.660000       15.810001       11.940001
  H0N       28.600002       14.710001       12.950001
  H0O       29.680002       15.930000       13.680000
  C0P       27.299999       16.810001       14.120001
  H0Q       26.430000       17.460001       14.060000
  H0R       27.889999       17.090000       14.990001
  H0S       26.900002       15.800000       14.240000
  C0T       28.820002       18.070000       12.810000
  H0U       29.590000       18.210001       13.570002
  H0V       28.250000       18.960001       13.070001
  H0W       29.280003       18.260000       11.840000
  H0X       27.850000       16.680000       10.730000
  H0Y       26.660002       15.740002       11.680001
