52
 generated by VMD
  PB        41.920006        5.690000        6.170001
  PB        41.889999       11.830001        6.100000
  PB        41.880001       17.920000        6.430000
  PB        41.990005       23.960001        6.180000
  PB        42.020000       29.970001        6.240000
  PB        18.120001        5.760000        6.110000
  PB        24.200001        5.720000        6.140000
  PB        30.220001        5.770000        6.260000
  PB        35.970001        5.810000        6.400001
  PB        18.120001       11.990000        6.020000
  PB        24.290001       11.780001        6.020000
  PB        30.180000       11.790000        6.210001
  PB        36.160004       11.780001        6.200000
  PB        18.130001       17.889999        6.110000
  PB        24.020002       17.690001        6.510000
  PB        29.830000       17.710001        6.170001
  PB        35.900002       17.880001        6.060000
  PB        17.970001       23.700001        6.220000
  PB        24.030001       23.920002        6.310000
  PB        29.870003       23.740002        6.220000
  PB        35.890003       23.880001        6.100000
  PB        17.860001       29.770002        5.670000
  PB        23.880001       29.920002        5.980000
  PB        29.990002       29.660000        6.030001
  PB        35.870003       29.790001        6.020000
  C00       26.990002       19.640001       11.350001
  C01       28.370001       19.320000       10.610001
  O02       28.720001       17.980001       10.710001
  H03       29.200001       19.870001       11.050000
  H04       28.310001       19.610001        9.560000
  P05       30.100002       17.450001       10.060000
  O06       30.210001       16.020000       10.450001
  O07       29.990002       17.820000        8.610001
  O08       31.280003       18.200001       10.670000
  C09       31.570000       18.040001       12.030001
  H0B       32.430004       17.370001       12.010001
  H0C       30.670002       17.620001       12.480000
  N0J       26.320002       20.910000       10.820000
  C0K       25.090000       20.990002       11.640000
  H0M       25.370003       20.660000       12.640000
  H0N       24.540003       21.930000       11.570001
  H0O       24.330002       20.350000       11.180000
  C0P       26.040001       21.090002        9.350000
  H0Q       25.340002       20.340002        8.980000
  H0R       25.380001       21.950001        9.350000
  H0S       26.890001       21.320002        8.710001
  C0T       27.170002       21.980001       11.280001
  H0U       28.170002       22.070000       10.870000
  H0V       27.460001       21.990002       12.330000
  H0W       26.740000       22.970001       11.100000
  H0X       27.290001       19.780001       12.390001
  H0Y       26.230001       18.870001       11.230000
